{
  "project_info": {
    "project_number": "929719410589",
    "project_id": "notificationsapp-9228c",
    "storage_bucket": "notificationsapp-9228c.appspot.com"
  },
  "client": [
    {
      "client_info": {
        "mobilesdk_app_id": "1:929719410589:android:3c7014c4b2a30b5200d974",
        "android_client_info": {
          "package_name": "com.example.notifcationsapp"
        }
      },
      "oauth_client": [
        {
          "client_id": "929719410589-ursodddp5b8tvontbb001g661gj7de8r.apps.googleusercontent.com",
          "client_type": 3
        }
      ],
      "api_key": [
        {
          "current_key": "AIzaSyAxzSIPmmVcJDAjO9ktfa2iIsZch5-5eV0"
        }
      ],
      "services": {
        "appinvite_service": {
          "other_platform_oauth_client": [
            {
              "client_id": "929719410589-ursodddp5b8tvontbb001g661gj7de8r.apps.googleusercontent.com",
              "client_type": 3
            }
          ]
        }
      }
    }
  ],
  "configuration_version": "1"
}